{
  "_embedded": {
    "events": [
      {
        "name": "THE FAT GATOR  (Rescheduled- Date TBD)",
        "type": "event",
        "id": "LvZ189NFgNuNgN8ZtAO6H",
        "test": false,
        "description": "***This event is currently being rescheduled***\n\nThe Fat Gator Music Festival is jam-packed with fun activities, delicious Cajun food, tasty crawfish and musical entertainment.\n\nThe Day Time activities include family fun with carnival rides and games, art displays, shopping outlet, food trucks and features a Gumbo cook-off. Live entertainment by Zydeco Bands and DJ’s.\n\nThe Night Time activities feature a concert headlined by your favorite Louisiana artist Boosie Badass along with top musical act MO3 and many other Hip-Hop and Zydeco DJ’s. More Day Time and Night Time acts to be announced.\n\nPayment plans available upon checkout. One (1) child Free per adult ticket and all children under 4 ft. height Free\n",
        "url": "https://www.universe.com/events/the-fat-gator-rescheduled-date-tbd-tickets-YZPM8C?ref=ticketmaster",
        "locale": "en-us",
        "images": [
          {
            "ratio": "16_9",
            "url": "https://s1.ticketm.net/dam/c/80b/f3cd8d24-c3ae-4fa0-b4bc-1ba99f9b380b_106091_TABLET_LANDSCAPE_16_9.jpg",
            "width": 1024,
            "height": 576,
            "fallback": true
          },
          {
            "ratio": "3_2",
            "url": "https://s1.ticketm.net/dam/c/80b/f3cd8d24-c3ae-4fa0-b4bc-1ba99f9b380b_106091_ARTIST_PAGE_3_2.jpg",
            "width": 305,
            "height": 203,
            "fallback": true
          },
          {
            "ratio": "4_3",
            "url": "https://s1.ticketm.net/dam/c/80b/f3cd8d24-c3ae-4fa0-b4bc-1ba99f9b380b_106091_CUSTOM.jpg",
            "width": 305,
            "height": 225,
            "fallback": true
          },
          {
            "ratio": "3_2",
            "url": "https://s1.ticketm.net/dam/c/80b/f3cd8d24-c3ae-4fa0-b4bc-1ba99f9b380b_106091_TABLET_LANDSCAPE_3_2.jpg",
            "width": 1024,
            "height": 683,
            "fallback": true
          },
          {
            "ratio": "16_9",
            "url": "https://s1.ticketm.net/dam/c/80b/f3cd8d24-c3ae-4fa0-b4bc-1ba99f9b380b_106091_TABLET_LANDSCAPE_LARGE_16_9.jpg",
            "width": 2048,
            "height": 1152,
            "fallback": true
          },
          {
            "ratio": "16_9",
            "url": "https://s1.ticketm.net/dam/c/80b/f3cd8d24-c3ae-4fa0-b4bc-1ba99f9b380b_106091_RECOMENDATION_16_9.jpg",
            "width": 100,
            "height": 56,
            "fallback": true
          },
          {
            "ratio": "16_9",
            "url": "https://s1.ticketm.net/dam/c/80b/f3cd8d24-c3ae-4fa0-b4bc-1ba99f9b380b_106091_RETINA_PORTRAIT_16_9.jpg",
            "width": 640,
            "height": 360,
            "fallback": true
          },
          {
            "ratio": "3_2",
            "url": "https://s1.ticketm.net/dam/c/80b/f3cd8d24-c3ae-4fa0-b4bc-1ba99f9b380b_106091_RETINA_PORTRAIT_3_2.jpg",
            "width": 640,
            "height": 427,
            "fallback": true
          },
          {
            "ratio": "16_9",
            "url": "https://s1.ticketm.net/dam/c/80b/f3cd8d24-c3ae-4fa0-b4bc-1ba99f9b380b_106091_EVENT_DETAIL_PAGE_16_9.jpg",
            "width": 205,
            "height": 115,
            "fallback": true
          },
          {
            "ratio": "16_9",
            "url": "https://s1.ticketm.net/dam/c/80b/f3cd8d24-c3ae-4fa0-b4bc-1ba99f9b380b_106091_RETINA_LANDSCAPE_16_9.jpg",
            "width": 1136,
            "height": 639,
            "fallback": true
          },
          {
            "ratio": "1_1",
            "url": "https://images.universe.com/5da3edd4-abbf-4d8d-9937-ad1d30403b43/-/format/jpeg/-/scale_crop/500x500/center/-/progressive/yes/-/inline/yes/",
            "width": 500,
            "height": 500,
            "fallback": false
          }
        ],
        "sales": {
          "public": {
            "startDateTime": "2016-01-01T00:00:00Z",
            "startTBD": false,
            "endDateTime": "2020-11-29T04:00:00Z"
          }
        },
        "dates": {
          "access": {
            "startDateTime": "2016-01-01T00:00:00Z",
            "startApproximate": false,
            "endDateTime": "2020-11-29T04:00:00Z",
            "endApproximate": false
          },
          "start": {
            "localDate": "2020-11-28",
            "localTime": "14:00:00",
            "dateTime": "2020-11-28T20:00:00Z",
            "dateTBD": false,
            "dateTBA": false,
            "timeTBA": false,
            "noSpecificTime": false
          },
          "end": {
            "localTime": "14:00:00",
            "dateTime": "2020-11-29T04:00:00Z",
            "approximate": false,
            "noSpecificTime": false
          },
          "timezone": "America/Chicago",
          "status": {
            "code": "onsale"
          },
          "spanMultipleDays": false
        },
        "classifications": [
          {
            "primary": true,
            "segment": {
              "id": "KZFzniwnSyZfZ7v7nJ",
              "name": "Music"
            },
            "genre": {
              "id": "KnvZfZ7vAv1",
              "name": "Hip-Hop/Rap"
            },
            "subGenre": {
              "id": "KZazBEonSMnZfZ7vkvl",
              "name": "Hip-Hop/Rap"
            },
            "type": {
              "id": "KZAyXgnZfZ7v7la",
              "name": "Individual"
            },
            "subType": {
              "id": "KZFzBErXgnZfZ7vAd7",
              "name": "Musician"
            },
            "family": false
          }
        ],
        "_links": {
          "self": {
            "href": "/discovery/v2/events/LvZ189NFgNuNgN8ZtAO6H?locale=en-us"
          },
          "attractions": [
            {
              "href": "/discovery/v2/attractions/K8vZ917pkB0?locale=en-us"
            },
            {
              "href": "/discovery/v2/attractions/K8vZ917b1i7?locale=en-us"
            }
          ],
          "venues": [
            {
              "href": "/discovery/v2/venues/KovZpZAIEdeA?locale=en-us"
            }
          ]
        },
        "_embedded": {
          "venues": [
            {
              "name": "Austin American Statesman",
              "type": "venue",
              "id": "KovZpZAIEdeA",
              "test": false,
              "url": "https://www.ticketmaster.com/austin-american-statesman-tickets-austin/venue/476135",
              "locale": "en-us",
              "postalCode": "78704",
              "timezone": "America/Chicago",
              "city": {
                "name": "Austin"
              },
              "state": {
                "name": "Texas",
                "stateCode": "TX"
              },
              "country": {
                "name": "United States Of America",
                "countryCode": "US"
              },
              "address": {
                "line1": "305 South Congress Avenue"
              },
              "location": {
                "longitude": "-97.744563",
                "latitude": "30.258675"
              },
              "markets": [
                {
                  "name": "San Antonio and Austin",
                  "id": "40"
                }
              ],
              "dmas": [
                {
                  "id": 222
                },
                {
                  "id": 379
                },
                {
                  "id": 380
                }
              ],
              "upcomingEvents": {
                "_total": 1,
                "universe": 1
              },
              "_links": {
                "self": {
                  "href": "/discovery/v2/venues/KovZpZAIEdeA?locale=en-us"
                }
              }
            }
          ],
          "attractions": [
            {
              "name": "Boosie BadAzz",
              "type": "attraction",
              "id": "K8vZ917pkB0",
              "test": false,
              "url": "https://www.ticketmaster.com/boosie-badazz-tickets/artist/2120080",
              "locale": "en-us",
              "images": [
                {
                  "ratio": "16_9",
                  "url": "https://s1.ticketm.net/dam/c/80b/f3cd8d24-c3ae-4fa0-b4bc-1ba99f9b380b_106091_TABLET_LANDSCAPE_16_9.jpg",
                  "width": 1024,
                  "height": 576,
                  "fallback": true
                },
                {
                  "ratio": "3_2",
                  "url": "https://s1.ticketm.net/dam/c/80b/f3cd8d24-c3ae-4fa0-b4bc-1ba99f9b380b_106091_ARTIST_PAGE_3_2.jpg",
                  "width": 305,
                  "height": 203,
                  "fallback": true
                },
                {
                  "ratio": "4_3",
                  "url": "https://s1.ticketm.net/dam/c/80b/f3cd8d24-c3ae-4fa0-b4bc-1ba99f9b380b_106091_CUSTOM.jpg",
                  "width": 305,
                  "height": 225,
                  "fallback": true
                },
                {
                  "ratio": "3_2",
                  "url": "https://s1.ticketm.net/dam/c/80b/f3cd8d24-c3ae-4fa0-b4bc-1ba99f9b380b_106091_TABLET_LANDSCAPE_3_2.jpg",
                  "width": 1024,
                  "height": 683,
                  "fallback": true
                },
                {
                  "ratio": "16_9",
                  "url": "https://s1.ticketm.net/dam/c/80b/f3cd8d24-c3ae-4fa0-b4bc-1ba99f9b380b_106091_TABLET_LANDSCAPE_LARGE_16_9.jpg",
                  "width": 2048,
                  "height": 1152,
                  "fallback": true
                },
                {
                  "ratio": "16_9",
                  "url": "https://s1.ticketm.net/dam/c/80b/f3cd8d24-c3ae-4fa0-b4bc-1ba99f9b380b_106091_RECOMENDATION_16_9.jpg",
                  "width": 100,
                  "height": 56,
                  "fallback": true
                },
                {
                  "ratio": "16_9",
                  "url": "https://s1.ticketm.net/dam/c/80b/f3cd8d24-c3ae-4fa0-b4bc-1ba99f9b380b_106091_RETINA_PORTRAIT_16_9.jpg",
                  "width": 640,
                  "height": 360,
                  "fallback": true
                },
                {
                  "ratio": "3_2",
                  "url": "https://s1.ticketm.net/dam/c/80b/f3cd8d24-c3ae-4fa0-b4bc-1ba99f9b380b_106091_RETINA_PORTRAIT_3_2.jpg",
                  "width": 640,
                  "height": 427,
                  "fallback": true
                },
                {
                  "ratio": "16_9",
                  "url": "https://s1.ticketm.net/dam/c/80b/f3cd8d24-c3ae-4fa0-b4bc-1ba99f9b380b_106091_EVENT_DETAIL_PAGE_16_9.jpg",
                  "width": 205,
                  "height": 115,
                  "fallback": true
                },
                {
                  "ratio": "16_9",
                  "url": "https://s1.ticketm.net/dam/c/80b/f3cd8d24-c3ae-4fa0-b4bc-1ba99f9b380b_106091_RETINA_LANDSCAPE_16_9.jpg",
                  "width": 1136,
                  "height": 639,
                  "fallback": true
                }
              ],
              "classifications": [
                {
                  "primary": true,
                  "segment": {
                    "id": "KZFzniwnSyZfZ7v7nJ",
                    "name": "Music"
                  },
                  "genre": {
                    "id": "KnvZfZ7vAv1",
                    "name": "Hip-Hop/Rap"
                  },
                  "subGenre": {
                    "id": "KZazBEonSMnZfZ7vkvl",
                    "name": "Hip-Hop/Rap"
                  },
                  "type": {
                    "id": "KZAyXgnZfZ7v7la",
                    "name": "Individual"
                  },
                  "subType": {
                    "id": "KZFzBErXgnZfZ7vAd7",
                    "name": "Musician"
                  },
                  "family": false
                }
              ],
              "upcomingEvents": {
                "_total": 2,
                "universe": 1,
                "ticketmaster": 1
              },
              "_links": {
                "self": {
                  "href": "/discovery/v2/attractions/K8vZ917pkB0?locale=en-us"
                }
              }
            },
            {
              "name": "Mo3",
              "type": "attraction",
              "id": "K8vZ917b1i7",
              "test": false,
              "url": "https://www.ticketmaster.com/mo3-tickets/artist/2652622",
              "locale": "en-us",
              "images": [
                {
                  "ratio": "3_2",
                  "url": "https://s1.ticketm.net/dam/a/f59/7e9e1ada-e994-429b-9e7b-91ef79667f59_1070151_TABLET_LANDSCAPE_3_2.jpg",
                  "width": 1024,
                  "height": 683,
                  "fallback": false
                },
                {
                  "ratio": "16_9",
                  "url": "https://s1.ticketm.net/dam/a/f59/7e9e1ada-e994-429b-9e7b-91ef79667f59_1070151_RETINA_LANDSCAPE_16_9.jpg",
                  "width": 1136,
                  "height": 639,
                  "fallback": false
                },
                {
                  "ratio": "3_2",
                  "url": "https://s1.ticketm.net/dam/a/f59/7e9e1ada-e994-429b-9e7b-91ef79667f59_1070151_ARTIST_PAGE_3_2.jpg",
                  "width": 305,
                  "height": 203,
                  "fallback": false
                },
                {
                  "ratio": "16_9",
                  "url": "https://s1.ticketm.net/dam/a/f59/7e9e1ada-e994-429b-9e7b-91ef79667f59_1070151_TABLET_LANDSCAPE_16_9.jpg",
                  "width": 1024,
                  "height": 576,
                  "fallback": false
                },
                {
                  "ratio": "16_9",
                  "url": "https://s1.ticketm.net/dam/a/f59/7e9e1ada-e994-429b-9e7b-91ef79667f59_1070151_RETINA_PORTRAIT_16_9.jpg",
                  "width": 640,
                  "height": 360,
                  "fallback": false
                },
                {
                  "ratio": "16_9",
                  "url": "https://s1.ticketm.net/dam/a/f59/7e9e1ada-e994-429b-9e7b-91ef79667f59_1070151_TABLET_LANDSCAPE_LARGE_16_9.jpg",
                  "width": 2048,
                  "height": 1152,
                  "fallback": false
                },
                {
                  "ratio": "16_9",
                  "url": "https://s1.ticketm.net/dam/a/f59/7e9e1ada-e994-429b-9e7b-91ef79667f59_1070151_EVENT_DETAIL_PAGE_16_9.jpg",
                  "width": 205,
                  "height": 115,
                  "fallback": false
                },
                {
                  "ratio": "3_2",
                  "url": "https://s1.ticketm.net/dam/a/f59/7e9e1ada-e994-429b-9e7b-91ef79667f59_1070151_RETINA_PORTRAIT_3_2.jpg",
                  "width": 640,
                  "height": 427,
                  "fallback": false
                },
                {
                  "ratio": "16_9",
                  "url": "https://s1.ticketm.net/dam/a/f59/7e9e1ada-e994-429b-9e7b-91ef79667f59_1070151_RECOMENDATION_16_9.jpg",
                  "width": 100,
                  "height": 56,
                  "fallback": false
                },
                {
                  "ratio": "4_3",
                  "url": "https://s1.ticketm.net/dam/a/f59/7e9e1ada-e994-429b-9e7b-91ef79667f59_1070151_CUSTOM.jpg",
                  "width": 305,
                  "height": 225,
                  "fallback": false
                }
              ],
              "classifications": [
                {
                  "primary": true,
                  "segment": {
                    "id": "KZFzniwnSyZfZ7v7nJ",
                    "name": "Music"
                  },
                  "genre": {
                    "id": "KnvZfZ7vAv1",
                    "name": "Hip-Hop/Rap"
                  },
                  "subGenre": {
                    "id": "KZazBEonSMnZfZ7vkvl",
                    "name": "Hip-Hop/Rap"
                  },
                  "type": {
                    "id": "KZAyXgnZfZ7v7la",
                    "name": "Individual"
                  },
                  "subType": {
                    "id": "KZFzBErXgnZfZ7vAd7",
                    "name": "Musician"
                  },
                  "family": false
                }
              ],
              "upcomingEvents": {
                "_total": 1,
                "universe": 1
              },
              "_links": {
                "self": {
                  "href": "/discovery/v2/attractions/K8vZ917b1i7?locale=en-us"
                }
              }
            }
          ]
        }
      }
    ]
  },
  "_links": {
    "first": {
      "href": "/discovery/v2/events.json?countryCode=US&page=0&size=1"
    },
    "self": {
      "href": "/discovery/v2/events.json?size=1&countryCode=US"
    },
    "next": {
      "href": "/discovery/v2/events.json?countryCode=US&page=1&size=1"
    },
    "last": {
      "href": "/discovery/v2/events.json?countryCode=US&page=58907&size=1"
    }
  },
  "page": {
    "size": 1,
    "totalElements": 58908,
    "totalPages": 58908,
    "number": 0
  }
}